ex6/bus_system.vcd
$date
     Apr 24, 2015       11:22:42
$end

$version
 SystemC 2.3.1-Accellera --- Apr 23 2015 01:38:53
$end

$timescale
     1 ps
$end

$scope module SystemC $end
$var wire    1  aaaaa  clock       $end
$var wire    8  aaaab  top1.ram0(0) [7:0]  $end
$var wire    8  aaaac  top1.ram0(1) [7:0]  $end
$var wire    8  aaaad  top1.ram0(2) [7:0]  $end
$var wire    8  aaaae  top1.ram0(3) [7:0]  $end
$var wire    8  aaaaf  top1.ram0(4) [7:0]  $end
$var wire    8  aaaag  top1.ram0(5) [7:0]  $end
$var wire    8  aaaah  top1.ram0(6) [7:0]  $end
$var wire    8  aaaai  top1.ram0(7) [7:0]  $end
$var wire    8  aaaaj  top1.ram0(8) [7:0]  $end
$var wire    8  aaaak  top1.ram0(9) [7:0]  $end
$var wire    8  aaaal  top1.ram0(10) [7:0]  $end
$var wire    8  aaaam  top1.ram0(11) [7:0]  $end
$var wire    8  aaaan  top1.ram0(12) [7:0]  $end
$var wire    8  aaaao  top1.ram0(13) [7:0]  $end
$var wire    8  aaaap  top1.ram0(14) [7:0]  $end
$var wire    8  aaaaq  top1.ram0(15) [7:0]  $end
$var wire    8  aaaar  top1.ram0(16) [7:0]  $end
$var wire    8  aaaas  top1.ram0(17) [7:0]  $end
$var wire    8  aaaat  top1.ram0(18) [7:0]  $end
$var wire    8  aaaau  top1.ram0(19) [7:0]  $end
$var wire    8  aaaav  top1.ram0(20) [7:0]  $end
$var wire    8  aaaaw  top1.ram0(21) [7:0]  $end
$var wire    8  aaaax  top1.ram0(22) [7:0]  $end
$var wire    8  aaaay  top1.ram0(23) [7:0]  $end
$var wire    8  aaaaz  top1.ram0(24) [7:0]  $end
$var wire    8  aaaba  top1.ram0(25) [7:0]  $end
$var wire    8  aaabb  top1.ram0(26) [7:0]  $end
$var wire    8  aaabc  top1.ram0(27) [7:0]  $end
$var wire    8  aaabd  top1.ram0(28) [7:0]  $end
$var wire    8  aaabe  top1.ram0(29) [7:0]  $end
$var wire    8  aaabf  top1.ram0(30) [7:0]  $end
$var wire    8  aaabg  top1.ram0(31) [7:0]  $end
$var wire    8  aaabh  pc [7:0]  $end
$var wire    8  aaabi  A [7:0]  $end
$var wire   32  aaabj  opcode.cmd [31:0]  $end
$var wire   32  aaabk  opcode.arg [31:0]  $end
$var wire    8  aaabl  data [7:0]  $end
$var wire    8  aaabm  i [7:0]  $end
$var wire    8  aaabn  j [7:0]  $end
$var wire    8  aaabo  dest [7:0]  $end
$upscope $end
$enddefinitions  $end

$comment
All initial values are dumped below at time 0 sec = 0 timescale units.
$end

$dumpvars
1aaaaa
b0 aaaab
b0 aaaac
b0 aaaad
b0 aaaae
b0 aaaaf
b0 aaaag
b0 aaaah
b0 aaaai
b0 aaaaj
b0 aaaak
b0 aaaal
b0 aaaam
b0 aaaan
b0 aaaao
b0 aaaap
b0 aaaaq
b0 aaaar
b0 aaaas
b0 aaaat
b0 aaaau
b0 aaaav
b0 aaaaw
b0 aaaax
b0 aaaay
b0 aaaaz
b0 aaaba
b0 aaabb
b0 aaabc
b0 aaabd
b0 aaabe
b0 aaabf
b0 aaabg
b0 aaabh
b0 aaabi
b1011 aaabj
b0 aaabk
b0 aaabl
b0 aaabm
b0 aaabn
b0 aaabo
$end

#50000
0aaaaa
b10100011 aaaab

#100000
1aaaaa
b1 aaabh

#150000
0aaaaa
b10010111 aaaac

#200000
1aaaaa
b10 aaabh

#250000
0aaaaa
b10100010 aaaad

#300000
1aaaaa
b11 aaabh
b10 aaabk

#350000
0aaaaa
b1010101 aaaae

#400000
1aaaaa
b100 aaabh
b100000 aaabi
b100000 aaabk

#450000
0aaaaa
b1010011 aaaaf

#500000
1aaaaa
b101 aaabh
b1 aaabk
b100000 aaabm

#550000
0aaaaa
b10111110 aaaag

#600000
1aaaaa
b110 aaabh
b11 aaabk
b100000 aaabo

#650000
0aaaaa
b11110001 aaaah

#700000
1aaaaa
b111 aaabh
b11111111 aaabi
b11111111 aaabk

#750000
0aaaaa
b11111100 aaaai

#800000
1aaaaa
b1000 aaabh
b100 aaabk

#850000
0aaaaa
b11111001 aaaaj

#900000
1aaaaa
b10000010101000001010000 aaabj

#950000
0aaaaa
b1001 aaabh
b0 aaabi
b11000011111100100010000 aaabj

#1000000
1aaaaa
b1010 aaabh
b0 aaabk

#1050000
0aaaaa
b1111001 aaaak

#1100000
1aaaaa
b1011 aaabh

#1150000
0aaaaa
b1101011 aaaal

#1200000
1aaaaa
b1100 aaabh
b11111111 aaabi

#1250000
0aaaaa
b1010010 aaaam

#1300000
1aaaaa
b1101 aaabh

#1350000
0aaaaa
b10100 aaaan

#1400000
1aaaaa
b1111 aaabh
b1111 aaabk

#1450000
0aaaaa
b10011 aaaao

#1500000
1aaaaa
b10000 aaabh
b0 aaabi
b0 aaabk

#1550000
0aaaaa
b11101001 aaaap

#1600000
1aaaaa
b1000 aaabh
b1000 aaabk

#1650000
0aaaaa
b11100010 aaaaq

#1700000
1aaaaa
b10000010101000001010000 aaabj
b100 aaabk

#1750000
0aaaaa
b1001 aaabh
b11000011111100100010000 aaabj

#1800000
1aaaaa
b1010 aaabh
b0 aaabk

#1850000
0aaaaa
b101101 aaaar

#1900000
1aaaaa
b1011 aaabh

#1950000
0aaaaa
b1010001 aaaas

#2000000
1aaaaa
b1100 aaabh
b11111111 aaabi

#2050000
0aaaaa
b10001110 aaaat

#2100000
1aaaaa
b1101 aaabh

#2150000
0aaaaa
b11111 aaaau

#2200000
1aaaaa
b1111 aaabh
b1111 aaabk

#2250000
0aaaaa
b1010110 aaaav

#2300000
1aaaaa
b10000 aaabh
b0 aaabi
b0 aaabk

#2350000
0aaaaa
b1000 aaaaw

#2400000
1aaaaa
b1000 aaabh
b1000 aaabk

#2450000
0aaaaa
b1010111 aaaax

#2500000
1aaaaa
b10000010101000001010000 aaabj
b100 aaabk

#2550000
0aaaaa
b1001 aaabh
b11000011111100100010000 aaabj

#2600000
1aaaaa
b1010 aaabh
b0 aaabk

#2650000
0aaaaa
b100111 aaaay

#2700000
1aaaaa
b1011 aaabh

#2750000
0aaaaa

#2800000
1aaaaa
b1100 aaabh
b11111111 aaabi

#2850000
0aaaaa

#2900000
1aaaaa
b1101 aaabh

#2950000
0aaaaa

#3000000
1aaaaa
b1111 aaabh
b1111 aaabk

#3050000
0aaaaa

#3100000
1aaaaa
b10000 aaabh
b0 aaabi
b0 aaabk

#3150000
0aaaaa

#3200000
1aaaaa
b1000 aaabh
b1000 aaabk

#3250000
0aaaaa

#3300000
1aaaaa
b10000010101000001010000 aaabj
b100 aaabk

#3350000
0aaaaa
b1001 aaabh
b1 aaabi
b11000011111100100010000 aaabj

#3400000
1aaaaa
b1010 aaabh
b0 aaabk
b1 aaabl

#3450000
0aaaaa

#3500000
1aaaaa
b1011 aaabh

#3550000
0aaaaa

#3600000
1aaaaa
b1100 aaabh
b0 aaabi

#3650000
0aaaaa

#3700000
1aaaaa
b1110 aaabh

#3750000
0aaaaa

#3800000
1aaaaa
b10101 aaabh
b10101 aaabk

#3850000
0aaaaa

#3900000
1aaaaa
b10110 aaabh
b0 aaabk

#3950000
0aaaaa

#4000000
1aaaaa
b10111 aaabh
b10 aaabk

#4050000
0aaaaa

#4100000
1aaaaa
b10000010101000001010000 aaabj

#4150000
0aaaaa
b11000 aaabh
b10100011 aaabi
b11000011111100100010000 aaabj

#4200000
1aaaaa
b11001 aaabh
b0 aaabk
b10100011 aaabl

#4250000
0aaaaa

#4300000
1aaaaa
b11010 aaabh
b1111111 aaabi
b1111111 aaabk

#4350000
0aaaaa

#4400000
1aaaaa
b11011 aaabh
b0 aaabk

#4450000
0aaaaa

#4500000
1aaaaa
b11101 aaabh
b11101 aaabk

#4550000
0aaaaa

#4600000
1aaaaa
b11110 aaabh
b10100011 aaabi
b0 aaabk

#4650000
0aaaaa

#4700000
1aaaaa
b10000010101000001010000 aaabj
b11 aaabk

#4750000
0aaaaa
b11111 aaabh
b11000011111100100010000 aaabj

#4800000
1aaaaa
b100000 aaabh
b100000 aaabi

#4850000
0aaaaa

#4900000
1aaaaa
b100001 aaabh
b100001 aaabi
b0 aaabk

#4950000
0aaaaa

#5000000
1aaaaa
b100010 aaabh
b11 aaabk
b100001 aaabo

#5050000
0aaaaa

#5100000
1aaaaa
b100011 aaabh
b0 aaabi
b10 aaabk

#5150000
0aaaaa

#5200000
1aaaaa
b100100 aaabh
b1 aaabi
b0 aaabk

#5250000
0aaaaa

#5300000
1aaaaa
b100101 aaabh
b10 aaabk
b1 aaabn

#5350000
0aaaaa

#5400000
1aaaaa
b100110 aaabh

#5450000
0aaaaa

#5500000
1aaaaa
b100111 aaabh
b1 aaabk

#5550000
0aaaaa

#5600000
1aaaaa
b10111 aaabh
b10111 aaabk

#5650000
0aaaaa

#5700000
1aaaaa
b10000010101000001010000 aaabj
b10 aaabk

#5750000
0aaaaa
b11000 aaabh
b10010111 aaabi
b11000011111100100010000 aaabj

#5800000
1aaaaa
b11001 aaabh
b0 aaabk
b10010111 aaabl

#5850000
0aaaaa

#5900000
1aaaaa
b11010 aaabh
b1111111 aaabi
b1111111 aaabk

#5950000
0aaaaa

#6000000
1aaaaa
b11011 aaabh
b0 aaabk

#6050000
0aaaaa

#6100000
1aaaaa
b11101 aaabh
b11101 aaabk

#6150000
0aaaaa

#6200000
1aaaaa
b11110 aaabh
b10010111 aaabi
b0 aaabk

#6250000
0aaaaa

#6300000
1aaaaa
b10000010101000001010000 aaabj
b11 aaabk

#6350000
0aaaaa
b11111 aaabh
b11000011111100100010000 aaabj

#6400000
1aaaaa
b100000 aaabh
b100001 aaabi

#6450000
0aaaaa

#6500000
1aaaaa
b100001 aaabh
b100010 aaabi
b0 aaabk

#6550000
0aaaaa

#6600000
1aaaaa
b100010 aaabh
b11 aaabk
b100010 aaabo

#6650000
0aaaaa

#6700000
1aaaaa
b100011 aaabh
b1 aaabi
b10 aaabk

#6750000
0aaaaa

#6800000
1aaaaa
b100100 aaabh
b10 aaabi
b0 aaabk

#6850000
0aaaaa

#6900000
1aaaaa
b100101 aaabh
b10 aaabk
b10 aaabn

#6950000
0aaaaa

#7000000
1aaaaa
b100110 aaabh

#7050000
0aaaaa

#7100000
1aaaaa
b100111 aaabh
b1 aaabk

#7150000
0aaaaa

#7200000
1aaaaa
b10111 aaabh
b10111 aaabk

#7250000
0aaaaa

#7300000
1aaaaa
b10000010101000001010000 aaabj
b10 aaabk

#7350000
0aaaaa
b11000 aaabh
b10100010 aaabi
b11000011111100100010000 aaabj

#7400000
1aaaaa
b11001 aaabh
b0 aaabk
b10100010 aaabl

#7450000
0aaaaa

#7500000
1aaaaa
b11010 aaabh
b1111111 aaabi
b1111111 aaabk

#7550000
0aaaaa

#7600000
1aaaaa
b11011 aaabh
b0 aaabk

#7650000
0aaaaa

#7700000
1aaaaa
b11101 aaabh
b11101 aaabk

#7750000
0aaaaa

#7800000
1aaaaa
b11110 aaabh
b10100010 aaabi
b0 aaabk

#7850000
0aaaaa

#7900000
1aaaaa
b10000010101000001010000 aaabj
b11 aaabk

#7950000
0aaaaa
b11111 aaabh
b11000011111100100010000 aaabj

#8000000
1aaaaa
b100000 aaabh
b100010 aaabi

#8050000
0aaaaa

#8100000
1aaaaa
b100001 aaabh
b100011 aaabi
b0 aaabk

#8150000
0aaaaa

#8200000
1aaaaa
b100010 aaabh
b11 aaabk
b100011 aaabo

#8250000
0aaaaa

#8300000
1aaaaa
b100011 aaabh
b10 aaabi
b10 aaabk

#8350000
0aaaaa

#8400000
1aaaaa
b100100 aaabh
b11 aaabi
b0 aaabk

#8450000
0aaaaa

#8500000
1aaaaa
b100101 aaabh
b10 aaabk
b11 aaabn

#8550000
0aaaaa

#8600000
1aaaaa
b100110 aaabh

#8650000
0aaaaa

#8700000
1aaaaa
b100111 aaabh
b1 aaabk

#8750000
0aaaaa

#8800000
1aaaaa
b10111 aaabh
b10111 aaabk

#8850000
0aaaaa

#8900000
1aaaaa
b10000010101000001010000 aaabj
b10 aaabk

#8950000
0aaaaa
b11000 aaabh
b1010101 aaabi
b11000011111100100010000 aaabj

#9000000
1aaaaa
b11001 aaabh
b0 aaabk
b1010101 aaabl

#9050000
0aaaaa

#9100000
1aaaaa
b11010 aaabh
b1111111 aaabi
b1111111 aaabk

#9150000
0aaaaa

#9200000
1aaaaa
b11100 aaabh
b0 aaabk

#9250000
0aaaaa

#9300000
1aaaaa
b100010 aaabh
b100010 aaabk

#9350000
0aaaaa

#9400000
1aaaaa
b100011 aaabh
b11 aaabi
b10 aaabk

#9450000
0aaaaa

#9500000
1aaaaa
b100100 aaabh
b100 aaabi
b0 aaabk

#9550000
0aaaaa

#9600000
1aaaaa
b100101 aaabh
b10 aaabk
b100 aaabn

#9650000
0aaaaa

#9700000
1aaaaa
b100110 aaabh

#9750000
0aaaaa

#9800000
1aaaaa
b100111 aaabh
b1 aaabk

#9850000
0aaaaa

#9900000
1aaaaa
b10111 aaabh
b10111 aaabk

#9950000
0aaaaa

#10000000
1aaaaa
b10000010101000001010000 aaabj
b10 aaabk

#10050000
0aaaaa
b11000 aaabh
b1010011 aaabi
b11000011111100100010000 aaabj

#10100000
1aaaaa
b11001 aaabh
b0 aaabk
b1010011 aaabl

#10150000
0aaaaa

#10200000
1aaaaa
b11010 aaabh
b1111111 aaabi
b1111111 aaabk

#10250000
0aaaaa

#10300000
1aaaaa
b11100 aaabh
b0 aaabk

#10350000
0aaaaa

#10400000
1aaaaa
b100010 aaabh
b100010 aaabk

#10450000
0aaaaa

#10500000
1aaaaa
b100011 aaabh
b100 aaabi
b10 aaabk

#10550000
0aaaaa

#10600000
1aaaaa
b100100 aaabh
b101 aaabi
b0 aaabk

#10650000
0aaaaa

#10700000
1aaaaa
b100101 aaabh
b10 aaabk
b101 aaabn

#10750000
0aaaaa

#10800000
1aaaaa
b100110 aaabh

#10850000
0aaaaa

#10900000
1aaaaa
b100111 aaabh
b1 aaabk

#10950000
0aaaaa

#11000000
1aaaaa
b10111 aaabh
b10111 aaabk

#11050000
0aaaaa

#11100000
1aaaaa
b10000010101000001010000 aaabj
b10 aaabk

#11150000
0aaaaa
b11000 aaabh
b10111110 aaabi
b11000011111100100010000 aaabj

#11200000
1aaaaa
b11001 aaabh
b0 aaabk
b10111110 aaabl

#11250000
0aaaaa

#11300000
1aaaaa
b11010 aaabh
b1111111 aaabi
b1111111 aaabk

#11350000
0aaaaa

#11400000
1aaaaa
b11011 aaabh
b0 aaabk

#11450000
0aaaaa

#11500000
1aaaaa
b11101 aaabh
b11101 aaabk

#11550000
0aaaaa

#11600000
1aaaaa
b11110 aaabh
b10111110 aaabi
b0 aaabk

#11650000
0aaaaa

#11700000
1aaaaa
b10000010101000001010000 aaabj
b11 aaabk

#11750000
0aaaaa
b11111 aaabh
b11000011111100100010000 aaabj

#11800000
1aaaaa
b100000 aaabh
b100011 aaabi

#11850000
0aaaaa

#11900000
1aaaaa
b100001 aaabh
b100100 aaabi
b0 aaabk

#11950000
0aaaaa

#12000000
1aaaaa
b100010 aaabh
b11 aaabk
b100100 aaabo

#12050000
0aaaaa

#12100000
1aaaaa
b100011 aaabh
b101 aaabi
b10 aaabk

#12150000
0aaaaa

#12200000
1aaaaa
b100100 aaabh
b110 aaabi
b0 aaabk

#12250000
0aaaaa

#12300000
1aaaaa
b100101 aaabh
b10 aaabk
b110 aaabn

#12350000
0aaaaa

#12400000
1aaaaa
b100110 aaabh

#12450000
0aaaaa

#12500000
1aaaaa
b100111 aaabh
b1 aaabk

#12550000
0aaaaa

#12600000
1aaaaa
b10111 aaabh
b10111 aaabk

#12650000
0aaaaa

#12700000
1aaaaa
b10000010101000001010000 aaabj
b10 aaabk

#12750000
0aaaaa
b11000 aaabh
b11110001 aaabi
b11000011111100100010000 aaabj

#12800000
1aaaaa
b11001 aaabh
b0 aaabk
b11110001 aaabl

#12850000
0aaaaa

#12900000
1aaaaa
b11010 aaabh
b1111111 aaabi
b1111111 aaabk

#12950000
0aaaaa

#13000000
1aaaaa
b11011 aaabh
b0 aaabk

#13050000
0aaaaa

#13100000
1aaaaa
b11101 aaabh
b11101 aaabk

#13150000
0aaaaa

#13200000
1aaaaa
b11110 aaabh
b11110001 aaabi
b0 aaabk

#13250000
0aaaaa

#13300000
1aaaaa
b10000010101000001010000 aaabj
b11 aaabk

#13350000
0aaaaa
b11111 aaabh
b11000011111100100010000 aaabj

#13400000
1aaaaa
b100000 aaabh
b100100 aaabi

#13450000
0aaaaa

#13500000
1aaaaa
b100001 aaabh
b100101 aaabi
b0 aaabk

#13550000
0aaaaa

#13600000
1aaaaa
b100010 aaabh
b11 aaabk
b100101 aaabo

#13650000
0aaaaa

#13700000
1aaaaa
b100011 aaabh
b110 aaabi
b10 aaabk

#13750000
0aaaaa

#13800000
1aaaaa
b100100 aaabh
b111 aaabi
b0 aaabk

#13850000
0aaaaa

#13900000
1aaaaa
b100101 aaabh
b10 aaabk
b111 aaabn

#13950000
0aaaaa

#14000000
1aaaaa
b100110 aaabh

#14050000
0aaaaa

#14100000
1aaaaa
b100111 aaabh
b1 aaabk

#14150000
0aaaaa

#14200000
1aaaaa
b10111 aaabh
b10111 aaabk

#14250000
0aaaaa

#14300000
1aaaaa
b10000010101000001010000 aaabj
b10 aaabk

#14350000
0aaaaa
b11000 aaabh
b11111100 aaabi
b11000011111100100010000 aaabj

#14400000
1aaaaa
b11001 aaabh
b0 aaabk
b11111100 aaabl

#14450000
0aaaaa

#14500000
1aaaaa
b11010 aaabh
b1111111 aaabi
b1111111 aaabk

#14550000
0aaaaa

#14600000
1aaaaa
b11011 aaabh
b0 aaabk

#14650000
0aaaaa

#14700000
1aaaaa
b11101 aaabh
b11101 aaabk

#14750000
0aaaaa

#14800000
1aaaaa
b11110 aaabh
b11111100 aaabi
b0 aaabk

#14850000
0aaaaa

#14900000
1aaaaa
b10000010101000001010000 aaabj
b11 aaabk

#14950000
0aaaaa
b11111 aaabh
b11000011111100100010000 aaabj

#15000000
1aaaaa
b100000 aaabh
b100101 aaabi

#15050000
0aaaaa

#15100000
1aaaaa
b100001 aaabh
b100110 aaabi
b0 aaabk

#15150000
0aaaaa

#15200000
1aaaaa
b100010 aaabh
b11 aaabk
b100110 aaabo

#15250000
0aaaaa

#15300000
1aaaaa
b100011 aaabh
b111 aaabi
b10 aaabk

#15350000
0aaaaa

#15400000
1aaaaa
b100100 aaabh
b1000 aaabi
b0 aaabk

#15450000
0aaaaa

#15500000
1aaaaa
b100101 aaabh
b10 aaabk
b1000 aaabn

#15550000
0aaaaa

#15600000
1aaaaa
b100110 aaabh

#15650000
0aaaaa

#15700000
1aaaaa
b100111 aaabh
b1 aaabk

#15750000
0aaaaa

#15800000
1aaaaa
b10111 aaabh
b10111 aaabk

#15850000
0aaaaa

#15900000
1aaaaa
b10000010101000001010000 aaabj
b10 aaabk

#15950000
0aaaaa
b11000 aaabh
b11111001 aaabi
b11000011111100100010000 aaabj

#16000000
1aaaaa
b11001 aaabh
b0 aaabk
b11111001 aaabl

#16050000
0aaaaa

#16100000
1aaaaa
b11010 aaabh
b1111111 aaabi
b1111111 aaabk

#16150000
0aaaaa

#16200000
1aaaaa
b11011 aaabh
b0 aaabk

#16250000
0aaaaa

#16300000
1aaaaa
b11101 aaabh
b11101 aaabk

#16350000
0aaaaa

#16400000
1aaaaa
b11110 aaabh
b11111001 aaabi
b0 aaabk

#16450000
0aaaaa

#16500000
1aaaaa
b10000010101000001010000 aaabj
b11 aaabk

#16550000
0aaaaa
b11111 aaabh
b11000011111100100010000 aaabj

#16600000
1aaaaa
b100000 aaabh
b100110 aaabi

#16650000
0aaaaa

#16700000
1aaaaa
b100001 aaabh
b100111 aaabi
b0 aaabk

#16750000
0aaaaa

#16800000
1aaaaa
b100010 aaabh
b11 aaabk
b100111 aaabo

#16850000
0aaaaa

#16900000
1aaaaa
b100011 aaabh
b1000 aaabi
b10 aaabk

#16950000
0aaaaa

#17000000
1aaaaa
b100100 aaabh
b1001 aaabi
b0 aaabk

#17050000
0aaaaa

#17100000
1aaaaa
b100101 aaabh
b10 aaabk
b1001 aaabn

#17150000
0aaaaa

#17200000
1aaaaa
b100110 aaabh

#17250000
0aaaaa

#17300000
1aaaaa
b100111 aaabh
b1 aaabk

#17350000
0aaaaa

#17400000
1aaaaa
b10111 aaabh
b10111 aaabk

#17450000
0aaaaa

#17500000
1aaaaa
b10000010101000001010000 aaabj
b10 aaabk

#17550000
0aaaaa
b11000 aaabh
b1111001 aaabi
b11000011111100100010000 aaabj

#17600000
1aaaaa
b11001 aaabh
b0 aaabk
b1111001 aaabl

#17650000
0aaaaa

#17700000
1aaaaa
b11010 aaabh
b1111111 aaabi
b1111111 aaabk

#17750000
0aaaaa

#17800000
1aaaaa
b11100 aaabh
b0 aaabk

#17850000
0aaaaa

#17900000
1aaaaa
b100010 aaabh
b100010 aaabk

#17950000
0aaaaa

#18000000
1aaaaa
b100011 aaabh
b1001 aaabi
b10 aaabk

#18050000
0aaaaa

#18100000
1aaaaa
b100100 aaabh
b1010 aaabi
b0 aaabk

#18150000
0aaaaa

#18200000
1aaaaa
b100101 aaabh
b10 aaabk
b1010 aaabn

#18250000
0aaaaa

#18300000
1aaaaa
b100110 aaabh

#18350000
0aaaaa

#18400000
1aaaaa
b100111 aaabh
b1 aaabk

#18450000
0aaaaa

#18500000
1aaaaa
b10111 aaabh
b10111 aaabk

#18550000
0aaaaa

#18600000
1aaaaa
b10000010101000001010000 aaabj
b10 aaabk

#18650000
0aaaaa
b11000 aaabh
b1101011 aaabi
b11000011111100100010000 aaabj

#18700000
1aaaaa
b11001 aaabh
b0 aaabk
b1101011 aaabl

#18750000
0aaaaa

#18800000
1aaaaa
b11010 aaabh
b1111111 aaabi
b1111111 aaabk

#18850000
0aaaaa

#18900000
1aaaaa
b11100 aaabh
b0 aaabk

#18950000
0aaaaa

#19000000
1aaaaa
b100010 aaabh
b100010 aaabk

#19050000
0aaaaa

#19100000
1aaaaa
b100011 aaabh
b1010 aaabi
b10 aaabk

#19150000
0aaaaa

#19200000
1aaaaa
b100100 aaabh
b1011 aaabi
b0 aaabk

#19250000
0aaaaa

#19300000
1aaaaa
b100101 aaabh
b10 aaabk
b1011 aaabn

#19350000
0aaaaa

#19400000
1aaaaa
b100110 aaabh

#19450000
0aaaaa

#19500000
1aaaaa
b100111 aaabh
b1 aaabk

#19550000
0aaaaa

#19600000
1aaaaa
b10111 aaabh
b10111 aaabk

#19650000
0aaaaa

#19700000
1aaaaa
b10000010101000001010000 aaabj
b10 aaabk

#19750000
0aaaaa
b11000 aaabh
b1010010 aaabi
b11000011111100100010000 aaabj

#19800000
1aaaaa
b11001 aaabh
b0 aaabk
b1010010 aaabl

#19850000
0aaaaa

#19900000
1aaaaa
b11010 aaabh
b1111111 aaabi
b1111111 aaabk

#19950000
0aaaaa

#20000000
1aaaaa
b11100 aaabh
b0 aaabk

#20050000
0aaaaa

#20100000
1aaaaa
b100010 aaabh
b100010 aaabk

#20150000
0aaaaa

#20200000
1aaaaa
b100011 aaabh
b1011 aaabi
b10 aaabk

#20250000
0aaaaa

#20300000
1aaaaa
b100100 aaabh
b1100 aaabi
b0 aaabk

#20350000
0aaaaa

#20400000
1aaaaa
b100101 aaabh
b10 aaabk
b1100 aaabn

#20450000
0aaaaa

#20500000
1aaaaa
b100110 aaabh

#20550000
0aaaaa

#20600000
1aaaaa
b100111 aaabh
b1 aaabk

#20650000
0aaaaa

#20700000
1aaaaa
b10111 aaabh
b10111 aaabk

#20750000
0aaaaa

#20800000
1aaaaa
b10000010101000001010000 aaabj
b10 aaabk

#20850000
0aaaaa
b11000 aaabh
b10100 aaabi
b11000011111100100010000 aaabj

#20900000
1aaaaa
b11001 aaabh
b0 aaabk
b10100 aaabl

#20950000
0aaaaa

#21000000
1aaaaa
b11010 aaabh
b1111111 aaabi
b1111111 aaabk

#21050000
0aaaaa

#21100000
1aaaaa
b11100 aaabh
b0 aaabk

#21150000
0aaaaa

#21200000
1aaaaa
b100010 aaabh
b100010 aaabk

#21250000
0aaaaa

#21300000
1aaaaa
b100011 aaabh
b1100 aaabi
b10 aaabk

#21350000
0aaaaa

#21400000
1aaaaa
b100100 aaabh
b1101 aaabi
b0 aaabk

#21450000
0aaaaa

#21500000
1aaaaa
b100101 aaabh
b10 aaabk
b1101 aaabn

#21550000
0aaaaa

#21600000
1aaaaa
b100110 aaabh

#21650000
0aaaaa

#21700000
1aaaaa
b100111 aaabh
b1 aaabk

#21750000
0aaaaa

#21800000
1aaaaa
b10111 aaabh
b10111 aaabk

#21850000
0aaaaa

#21900000
1aaaaa
b10000010101000001010000 aaabj
b10 aaabk

#21950000
0aaaaa
b11000 aaabh
b10011 aaabi
b11000011111100100010000 aaabj

#22000000
1aaaaa
b11001 aaabh
b0 aaabk
b10011 aaabl

#22050000
0aaaaa

#22100000
1aaaaa
b11010 aaabh
b1111111 aaabi
b1111111 aaabk

#22150000
0aaaaa

#22200000
1aaaaa
b11100 aaabh
b0 aaabk

#22250000
0aaaaa

#22300000
1aaaaa
b100010 aaabh
b100010 aaabk

#22350000
0aaaaa

#22400000
1aaaaa
b100011 aaabh
b1101 aaabi
b10 aaabk

#22450000
0aaaaa

#22500000
1aaaaa
b100100 aaabh
b1110 aaabi
b0 aaabk

#22550000
0aaaaa

#22600000
1aaaaa
b100101 aaabh
b10 aaabk
b1110 aaabn

#22650000
0aaaaa

#22700000
1aaaaa
b100110 aaabh

#22750000
0aaaaa

#22800000
1aaaaa
b100111 aaabh
b1 aaabk

#22850000
0aaaaa

#22900000
1aaaaa
b10111 aaabh
b10111 aaabk

#22950000
0aaaaa

#23000000
1aaaaa
b10000010101000001010000 aaabj
b10 aaabk

#23050000
0aaaaa
b11000 aaabh
b11101001 aaabi
b11000011111100100010000 aaabj

#23100000
1aaaaa
b11001 aaabh
b0 aaabk
b11101001 aaabl

#23150000
0aaaaa

#23200000
1aaaaa
b11010 aaabh
b1111111 aaabi
b1111111 aaabk

#23250000
0aaaaa

#23300000
1aaaaa
b11011 aaabh
b0 aaabk

#23350000
0aaaaa

#23400000
1aaaaa
b11101 aaabh
b11101 aaabk

#23450000
0aaaaa

#23500000
1aaaaa
b11110 aaabh
b11101001 aaabi
b0 aaabk

#23550000
0aaaaa

#23600000
1aaaaa
b10000010101000001010000 aaabj
b11 aaabk

#23650000
0aaaaa
b11111 aaabh
b11000011111100100010000 aaabj

#23700000
1aaaaa
b100000 aaabh
b100111 aaabi

#23750000
0aaaaa

#23800000
1aaaaa
b100001 aaabh
b101000 aaabi
b0 aaabk

#23850000
0aaaaa

#23900000
1aaaaa
b100010 aaabh
b11 aaabk
b101000 aaabo

#23950000
0aaaaa

#24000000
1aaaaa
b100011 aaabh
b1110 aaabi
b10 aaabk

#24050000
0aaaaa

#24100000
1aaaaa
b100100 aaabh
b1111 aaabi
b0 aaabk

#24150000
0aaaaa

#24200000
1aaaaa
b100101 aaabh
b10 aaabk
b1111 aaabn

#24250000
0aaaaa

#24300000
1aaaaa
b100110 aaabh

#24350000
0aaaaa

#24400000
1aaaaa
b100111 aaabh
b1 aaabk

#24450000
0aaaaa

#24500000
1aaaaa
b10111 aaabh
b10111 aaabk

#24550000
0aaaaa

#24600000
1aaaaa
b10000010101000001010000 aaabj
b10 aaabk

#24650000
0aaaaa
b11000 aaabh
b11100010 aaabi
b11000011111100100010000 aaabj

#24700000
1aaaaa
b11001 aaabh
b0 aaabk
b11100010 aaabl

#24750000
0aaaaa

#24800000
1aaaaa
b11010 aaabh
b1111111 aaabi
b1111111 aaabk

#24850000
0aaaaa

#24900000
1aaaaa
b11011 aaabh
b0 aaabk

#24950000
0aaaaa

#25000000
1aaaaa
b11101 aaabh
b11101 aaabk

#25050000
0aaaaa

#25100000
1aaaaa
b11110 aaabh
b11100010 aaabi
b0 aaabk

#25150000
0aaaaa

#25200000
1aaaaa
b10000010101000001010000 aaabj
b11 aaabk

#25250000
0aaaaa
b11111 aaabh
b11000011111100100010000 aaabj

#25300000
1aaaaa
b100000 aaabh
b101000 aaabi

#25350000
0aaaaa

#25400000
1aaaaa
b100001 aaabh
b101001 aaabi
b0 aaabk

#25450000
0aaaaa

#25500000
1aaaaa
b100010 aaabh
b11 aaabk
b101001 aaabo

#25550000
0aaaaa

#25600000
1aaaaa
b100011 aaabh
b1111 aaabi
b10 aaabk

#25650000
0aaaaa

#25700000
1aaaaa
b100100 aaabh
b10000 aaabi
b0 aaabk

#25750000
0aaaaa

#25800000
1aaaaa
b100101 aaabh
b10 aaabk
b10000 aaabn

#25850000
0aaaaa

#25900000
1aaaaa
b100110 aaabh

#25950000
0aaaaa

#26000000
1aaaaa
b100111 aaabh
b1 aaabk

#26050000
0aaaaa

#26100000
1aaaaa
b10111 aaabh
b10111 aaabk

#26150000
0aaaaa

#26200000
1aaaaa
b10000010101000001010000 aaabj
b10 aaabk

#26250000
0aaaaa
b11000 aaabh
b101101 aaabi
b11000011111100100010000 aaabj

#26300000
1aaaaa
b11001 aaabh
b0 aaabk
b101101 aaabl

#26350000
0aaaaa

#26400000
1aaaaa
b11010 aaabh
b1111111 aaabi
b1111111 aaabk

#26450000
0aaaaa

#26500000
1aaaaa
b11100 aaabh
b0 aaabk

#26550000
0aaaaa

#26600000
1aaaaa
b100010 aaabh
b100010 aaabk

#26650000
0aaaaa

#26700000
1aaaaa
b100011 aaabh
b10000 aaabi
b10 aaabk

#26750000
0aaaaa

#26800000
1aaaaa
b100100 aaabh
b10001 aaabi
b0 aaabk

#26850000
0aaaaa

#26900000
1aaaaa
b100101 aaabh
b10 aaabk
b10001 aaabn

#26950000
0aaaaa

#27000000
1aaaaa
b100110 aaabh

#27050000
0aaaaa

